{"frames": [

{
	"filename": "Card_6_0000",
	"frame": {"x":1,"y":1,"w":3,"h":3},
	"rotated": false,
	"trimmed": true,
	"spriteSourceSize": {"x":0,"y":0,"w":3,"h":3},
	"sourceSize": {"w":700,"h":590},
	"pivot": {"x":0.5,"y":0.5}
},
{
	"filename": "Card_6_0001",
	"frame": {"x":6,"y":1,"w":658,"h":557},
	"rotated": false,
	"trimmed": true,
	"spriteSourceSize": {"x":21,"y":16,"w":658,"h":557},
	"sourceSize": {"w":700,"h":590},
	"pivot": {"x":0.5,"y":0.5}
},
{
	"filename": "Card_6_0002",
	"frame": {"x":666,"y":1,"w":658,"h":557},
	"rotated": false,
	"trimmed": true,
	"spriteSourceSize": {"x":21,"y":16,"w":658,"h":557},
	"sourceSize": {"w":700,"h":590},
	"pivot": {"x":0.5,"y":0.5}
},
{
	"filename": "Card_6_0003",
	"frame": {"x":1326,"y":1,"w":658,"h":557},
	"rotated": false,
	"trimmed": true,
	"spriteSourceSize": {"x":21,"y":16,"w":658,"h":557},
	"sourceSize": {"w":700,"h":590},
	"pivot": {"x":0.5,"y":0.5}
},
{
	"filename": "Card_6_0004",
	"frame": {"x":1986,"y":1,"w":658,"h":557},
	"rotated": false,
	"trimmed": true,
	"spriteSourceSize": {"x":21,"y":16,"w":658,"h":557},
	"sourceSize": {"w":700,"h":590},
	"pivot": {"x":0.5,"y":0.5}
},
{
	"filename": "Card_6_0005",
	"frame": {"x":2646,"y":1,"w":658,"h":557},
	"rotated": false,
	"trimmed": true,
	"spriteSourceSize": {"x":21,"y":16,"w":658,"h":557},
	"sourceSize": {"w":700,"h":590},
	"pivot": {"x":0.5,"y":0.5}
},
{
	"filename": "Card_6_0006",
	"frame": {"x":1,"y":560,"w":658,"h":557},
	"rotated": false,
	"trimmed": true,
	"spriteSourceSize": {"x":21,"y":16,"w":658,"h":557},
	"sourceSize": {"w":700,"h":590},
	"pivot": {"x":0.5,"y":0.5}
},
{
	"filename": "Card_6_0007",
	"frame": {"x":661,"y":560,"w":658,"h":557},
	"rotated": false,
	"trimmed": true,
	"spriteSourceSize": {"x":21,"y":16,"w":658,"h":557},
	"sourceSize": {"w":700,"h":590},
	"pivot": {"x":0.5,"y":0.5}
},
{
	"filename": "Card_6_0008",
	"frame": {"x":1321,"y":560,"w":658,"h":557},
	"rotated": false,
	"trimmed": true,
	"spriteSourceSize": {"x":21,"y":16,"w":658,"h":557},
	"sourceSize": {"w":700,"h":590},
	"pivot": {"x":0.5,"y":0.5}
},
{
	"filename": "Card_6_0009",
	"frame": {"x":1981,"y":560,"w":658,"h":557},
	"rotated": false,
	"trimmed": true,
	"spriteSourceSize": {"x":21,"y":16,"w":658,"h":557},
	"sourceSize": {"w":700,"h":590},
	"pivot": {"x":0.5,"y":0.5}
},
{
	"filename": "Card_6_0010",
	"frame": {"x":2641,"y":560,"w":658,"h":557},
	"rotated": false,
	"trimmed": true,
	"spriteSourceSize": {"x":21,"y":16,"w":658,"h":557},
	"sourceSize": {"w":700,"h":590},
	"pivot": {"x":0.5,"y":0.5}
},
{
	"filename": "Card_6_0011",
	"frame": {"x":3301,"y":560,"w":658,"h":557},
	"rotated": false,
	"trimmed": true,
	"spriteSourceSize": {"x":21,"y":16,"w":658,"h":557},
	"sourceSize": {"w":700,"h":590},
	"pivot": {"x":0.5,"y":0.5}
},
{
	"filename": "Card_6_0012",
	"frame": {"x":1,"y":1119,"w":658,"h":557},
	"rotated": false,
	"trimmed": true,
	"spriteSourceSize": {"x":21,"y":16,"w":658,"h":557},
	"sourceSize": {"w":700,"h":590},
	"pivot": {"x":0.5,"y":0.5}
},
{
	"filename": "Card_6_0013",
	"frame": {"x":661,"y":1119,"w":658,"h":557},
	"rotated": false,
	"trimmed": true,
	"spriteSourceSize": {"x":21,"y":16,"w":658,"h":557},
	"sourceSize": {"w":700,"h":590},
	"pivot": {"x":0.5,"y":0.5}
},
{
	"filename": "Card_6_0014",
	"frame": {"x":1321,"y":1119,"w":658,"h":557},
	"rotated": false,
	"trimmed": true,
	"spriteSourceSize": {"x":21,"y":16,"w":658,"h":557},
	"sourceSize": {"w":700,"h":590},
	"pivot": {"x":0.5,"y":0.5}
},
{
	"filename": "Card_6_0015",
	"frame": {"x":1981,"y":1119,"w":658,"h":557},
	"rotated": false,
	"trimmed": true,
	"spriteSourceSize": {"x":21,"y":16,"w":658,"h":557},
	"sourceSize": {"w":700,"h":590},
	"pivot": {"x":0.5,"y":0.5}
},
{
	"filename": "Card_6_0016",
	"frame": {"x":2641,"y":1119,"w":658,"h":557},
	"rotated": false,
	"trimmed": true,
	"spriteSourceSize": {"x":21,"y":16,"w":658,"h":557},
	"sourceSize": {"w":700,"h":590},
	"pivot": {"x":0.5,"y":0.5}
},
{
	"filename": "Card_6_0017",
	"frame": {"x":3301,"y":1119,"w":658,"h":557},
	"rotated": false,
	"trimmed": true,
	"spriteSourceSize": {"x":21,"y":16,"w":658,"h":557},
	"sourceSize": {"w":700,"h":590},
	"pivot": {"x":0.5,"y":0.5}
},
{
	"filename": "Card_6_0018",
	"frame": {"x":1,"y":1678,"w":658,"h":557},
	"rotated": false,
	"trimmed": true,
	"spriteSourceSize": {"x":21,"y":16,"w":658,"h":557},
	"sourceSize": {"w":700,"h":590},
	"pivot": {"x":0.5,"y":0.5}
},
{
	"filename": "Card_6_0019",
	"frame": {"x":661,"y":1678,"w":658,"h":557},
	"rotated": false,
	"trimmed": true,
	"spriteSourceSize": {"x":21,"y":16,"w":658,"h":557},
	"sourceSize": {"w":700,"h":590},
	"pivot": {"x":0.5,"y":0.5}
},
{
	"filename": "Card_6_0020",
	"frame": {"x":1321,"y":1678,"w":658,"h":557},
	"rotated": false,
	"trimmed": true,
	"spriteSourceSize": {"x":21,"y":16,"w":658,"h":557},
	"sourceSize": {"w":700,"h":590},
	"pivot": {"x":0.5,"y":0.5}
},
{
	"filename": "Card_6_0021",
	"frame": {"x":1981,"y":1678,"w":658,"h":557},
	"rotated": false,
	"trimmed": true,
	"spriteSourceSize": {"x":21,"y":16,"w":658,"h":557},
	"sourceSize": {"w":700,"h":590},
	"pivot": {"x":0.5,"y":0.5}
},
{
	"filename": "Card_6_0022",
	"frame": {"x":2641,"y":1678,"w":658,"h":557},
	"rotated": false,
	"trimmed": true,
	"spriteSourceSize": {"x":21,"y":16,"w":658,"h":557},
	"sourceSize": {"w":700,"h":590},
	"pivot": {"x":0.5,"y":0.5}
},
{
	"filename": "Card_6_0023",
	"frame": {"x":3301,"y":1678,"w":658,"h":557},
	"rotated": false,
	"trimmed": true,
	"spriteSourceSize": {"x":21,"y":16,"w":658,"h":557},
	"sourceSize": {"w":700,"h":590},
	"pivot": {"x":0.5,"y":0.5}
},
{
	"filename": "Card_6_0024",
	"frame": {"x":1,"y":2237,"w":658,"h":557},
	"rotated": false,
	"trimmed": true,
	"spriteSourceSize": {"x":21,"y":16,"w":658,"h":557},
	"sourceSize": {"w":700,"h":590},
	"pivot": {"x":0.5,"y":0.5}
},
{
	"filename": "Card_6_0025",
	"frame": {"x":661,"y":2237,"w":658,"h":557},
	"rotated": false,
	"trimmed": true,
	"spriteSourceSize": {"x":21,"y":16,"w":658,"h":557},
	"sourceSize": {"w":700,"h":590},
	"pivot": {"x":0.5,"y":0.5}
},
{
	"filename": "Card_6_0026",
	"frame": {"x":1321,"y":2237,"w":658,"h":557},
	"rotated": false,
	"trimmed": true,
	"spriteSourceSize": {"x":21,"y":16,"w":658,"h":557},
	"sourceSize": {"w":700,"h":590},
	"pivot": {"x":0.5,"y":0.5}
},
{
	"filename": "Card_6_0027",
	"frame": {"x":1981,"y":2237,"w":658,"h":557},
	"rotated": false,
	"trimmed": true,
	"spriteSourceSize": {"x":21,"y":16,"w":658,"h":557},
	"sourceSize": {"w":700,"h":590},
	"pivot": {"x":0.5,"y":0.5}
},
{
	"filename": "Card_6_0028",
	"frame": {"x":2641,"y":2237,"w":658,"h":557},
	"rotated": false,
	"trimmed": true,
	"spriteSourceSize": {"x":21,"y":16,"w":658,"h":557},
	"sourceSize": {"w":700,"h":590},
	"pivot": {"x":0.5,"y":0.5}
},
{
	"filename": "Card_6_0029",
	"frame": {"x":3301,"y":2237,"w":658,"h":557},
	"rotated": false,
	"trimmed": true,
	"spriteSourceSize": {"x":21,"y":16,"w":658,"h":557},
	"sourceSize": {"w":700,"h":590},
	"pivot": {"x":0.5,"y":0.5}
},
{
	"filename": "Card_6_0030",
	"frame": {"x":1,"y":2796,"w":658,"h":557},
	"rotated": false,
	"trimmed": true,
	"spriteSourceSize": {"x":21,"y":16,"w":658,"h":557},
	"sourceSize": {"w":700,"h":590},
	"pivot": {"x":0.5,"y":0.5}
},
{
	"filename": "Card_6_0031",
	"frame": {"x":661,"y":2796,"w":658,"h":557},
	"rotated": false,
	"trimmed": true,
	"spriteSourceSize": {"x":21,"y":16,"w":658,"h":557},
	"sourceSize": {"w":700,"h":590},
	"pivot": {"x":0.5,"y":0.5}
},
{
	"filename": "Card_6_0032",
	"frame": {"x":1321,"y":2796,"w":658,"h":557},
	"rotated": false,
	"trimmed": true,
	"spriteSourceSize": {"x":21,"y":16,"w":658,"h":557},
	"sourceSize": {"w":700,"h":590},
	"pivot": {"x":0.5,"y":0.5}
},
{
	"filename": "Card_6_0033",
	"frame": {"x":1981,"y":2796,"w":658,"h":557},
	"rotated": false,
	"trimmed": true,
	"spriteSourceSize": {"x":21,"y":16,"w":658,"h":557},
	"sourceSize": {"w":700,"h":590},
	"pivot": {"x":0.5,"y":0.5}
},
{
	"filename": "Card_6_0034",
	"frame": {"x":2641,"y":2796,"w":658,"h":557},
	"rotated": false,
	"trimmed": true,
	"spriteSourceSize": {"x":21,"y":16,"w":658,"h":557},
	"sourceSize": {"w":700,"h":590},
	"pivot": {"x":0.5,"y":0.5}
},
{
	"filename": "Card_6_0035",
	"frame": {"x":3301,"y":2796,"w":658,"h":557},
	"rotated": false,
	"trimmed": true,
	"spriteSourceSize": {"x":21,"y":16,"w":658,"h":557},
	"sourceSize": {"w":700,"h":590},
	"pivot": {"x":0.5,"y":0.5}
},
{
	"filename": "Card_6_0036",
	"frame": {"x":1,"y":3355,"w":658,"h":557},
	"rotated": false,
	"trimmed": true,
	"spriteSourceSize": {"x":21,"y":16,"w":658,"h":557},
	"sourceSize": {"w":700,"h":590},
	"pivot": {"x":0.5,"y":0.5}
},
{
	"filename": "Card_6_0037",
	"frame": {"x":661,"y":3355,"w":658,"h":557},
	"rotated": false,
	"trimmed": true,
	"spriteSourceSize": {"x":21,"y":16,"w":658,"h":557},
	"sourceSize": {"w":700,"h":590},
	"pivot": {"x":0.5,"y":0.5}
},
{
	"filename": "Card_6_0038",
	"frame": {"x":1321,"y":3355,"w":658,"h":557},
	"rotated": false,
	"trimmed": true,
	"spriteSourceSize": {"x":21,"y":16,"w":658,"h":557},
	"sourceSize": {"w":700,"h":590},
	"pivot": {"x":0.5,"y":0.5}
},
{
	"filename": "Card_6_0039",
	"frame": {"x":1981,"y":3355,"w":658,"h":557},
	"rotated": false,
	"trimmed": true,
	"spriteSourceSize": {"x":21,"y":16,"w":658,"h":557},
	"sourceSize": {"w":700,"h":590},
	"pivot": {"x":0.5,"y":0.5}
},
{
	"filename": "Card_6_0040",
	"frame": {"x":2641,"y":3355,"w":658,"h":557},
	"rotated": false,
	"trimmed": true,
	"spriteSourceSize": {"x":21,"y":16,"w":658,"h":557},
	"sourceSize": {"w":700,"h":590},
	"pivot": {"x":0.5,"y":0.5}
},
{
	"filename": "Card_6_0041",
	"frame": {"x":3301,"y":3355,"w":658,"h":557},
	"rotated": false,
	"trimmed": true,
	"spriteSourceSize": {"x":21,"y":16,"w":658,"h":557},
	"sourceSize": {"w":700,"h":590},
	"pivot": {"x":0.5,"y":0.5}
}],
"meta": {
	"app": "http://www.codeandweb.com/texturepacker",
	"version": "1.0",
	"image": "card_6_min.png",
	"format": "INDEXED",
	"size": {"w":3960,"h":3913},
	"scale": "1",
	"smartupdate": "$TexturePacker:SmartUpdate:c6d7241c32270e4856ed578335483ba2:193b7f50ba3c0819bdf90019f96c9a63:69f32c6befb1363ba5c351e09b13c1bd$"
}
}
