{"frames": [

{
	"filename": "Card_53_0000",
	"frame": {"x":1,"y":1,"w":78,"h":75},
	"rotated": false,
	"trimmed": true,
	"spriteSourceSize": {"x":69,"y":100,"w":78,"h":75},
	"sourceSize": {"w":211,"h":275},
	"pivot": {"x":0.5,"y":0.5}
},
{
	"filename": "Card_53_0001",
	"frame": {"x":81,"y":1,"w":83,"h":81},
	"rotated": false,
	"trimmed": true,
	"spriteSourceSize": {"x":67,"y":98,"w":83,"h":81},
	"sourceSize": {"w":211,"h":275},
	"pivot": {"x":0.5,"y":0.5}
},
{
	"filename": "Card_53_0002",
	"frame": {"x":166,"y":1,"w":87,"h":87},
	"rotated": false,
	"trimmed": true,
	"spriteSourceSize": {"x":65,"y":96,"w":87,"h":87},
	"sourceSize": {"w":211,"h":275},
	"pivot": {"x":0.5,"y":0.5}
},
{
	"filename": "Card_53_0003",
	"frame": {"x":255,"y":1,"w":92,"h":91},
	"rotated": false,
	"trimmed": true,
	"spriteSourceSize": {"x":62,"y":94,"w":92,"h":91},
	"sourceSize": {"w":211,"h":275},
	"pivot": {"x":0.5,"y":0.5}
},
{
	"filename": "Card_53_0004",
	"frame": {"x":349,"y":1,"w":96,"h":96},
	"rotated": false,
	"trimmed": true,
	"spriteSourceSize": {"x":60,"y":91,"w":96,"h":96},
	"sourceSize": {"w":211,"h":275},
	"pivot": {"x":0.5,"y":0.5}
},
{
	"filename": "Card_53_0005",
	"frame": {"x":447,"y":1,"w":101,"h":100},
	"rotated": false,
	"trimmed": true,
	"spriteSourceSize": {"x":58,"y":90,"w":101,"h":100},
	"sourceSize": {"w":211,"h":275},
	"pivot": {"x":0.5,"y":0.5}
},
{
	"filename": "Card_53_0006",
	"frame": {"x":550,"y":1,"w":105,"h":104},
	"rotated": false,
	"trimmed": true,
	"spriteSourceSize": {"x":56,"y":88,"w":105,"h":104},
	"sourceSize": {"w":211,"h":275},
	"pivot": {"x":0.5,"y":0.5}
},
{
	"filename": "Card_53_0007",
	"frame": {"x":657,"y":1,"w":108,"h":109},
	"rotated": false,
	"trimmed": true,
	"spriteSourceSize": {"x":54,"y":85,"w":108,"h":109},
	"sourceSize": {"w":211,"h":275},
	"pivot": {"x":0.5,"y":0.5}
},
{
	"filename": "Card_53_0008",
	"frame": {"x":767,"y":1,"w":113,"h":113},
	"rotated": false,
	"trimmed": true,
	"spriteSourceSize": {"x":52,"y":83,"w":113,"h":113},
	"sourceSize": {"w":211,"h":275},
	"pivot": {"x":0.5,"y":0.5}
},
{
	"filename": "Card_53_0009",
	"frame": {"x":882,"y":1,"w":117,"h":117},
	"rotated": false,
	"trimmed": true,
	"spriteSourceSize": {"x":50,"y":81,"w":117,"h":117},
	"sourceSize": {"w":211,"h":275},
	"pivot": {"x":0.5,"y":0.5}
},
{
	"filename": "Card_53_0010",
	"frame": {"x":1001,"y":1,"w":121,"h":121},
	"rotated": false,
	"trimmed": true,
	"spriteSourceSize": {"x":48,"y":79,"w":121,"h":121},
	"sourceSize": {"w":211,"h":275},
	"pivot": {"x":0.5,"y":0.5}
},
{
	"filename": "Card_53_0011",
	"frame": {"x":1124,"y":1,"w":126,"h":125},
	"rotated": false,
	"trimmed": true,
	"spriteSourceSize": {"x":45,"y":77,"w":126,"h":125},
	"sourceSize": {"w":211,"h":275},
	"pivot": {"x":0.5,"y":0.5}
},
{
	"filename": "Card_53_0012",
	"frame": {"x":1252,"y":1,"w":130,"h":129},
	"rotated": false,
	"trimmed": true,
	"spriteSourceSize": {"x":43,"y":75,"w":130,"h":129},
	"sourceSize": {"w":211,"h":275},
	"pivot": {"x":0.5,"y":0.5}
},
{
	"filename": "Card_53_0013",
	"frame": {"x":1384,"y":1,"w":134,"h":134},
	"rotated": false,
	"trimmed": true,
	"spriteSourceSize": {"x":41,"y":73,"w":134,"h":134},
	"sourceSize": {"w":211,"h":275},
	"pivot": {"x":0.5,"y":0.5}
},
{
	"filename": "Card_53_0014",
	"frame": {"x":1520,"y":1,"w":138,"h":138},
	"rotated": false,
	"trimmed": true,
	"spriteSourceSize": {"x":39,"y":71,"w":138,"h":138},
	"sourceSize": {"w":211,"h":275},
	"pivot": {"x":0.5,"y":0.5}
},
{
	"filename": "Card_53_0015",
	"frame": {"x":1660,"y":1,"w":142,"h":143},
	"rotated": false,
	"trimmed": true,
	"spriteSourceSize": {"x":37,"y":68,"w":142,"h":143},
	"sourceSize": {"w":211,"h":275},
	"pivot": {"x":0.5,"y":0.5}
},
{
	"filename": "Card_53_0016",
	"frame": {"x":1804,"y":1,"w":147,"h":146},
	"rotated": false,
	"trimmed": true,
	"spriteSourceSize": {"x":35,"y":67,"w":147,"h":146},
	"sourceSize": {"w":211,"h":275},
	"pivot": {"x":0.5,"y":0.5}
},
{
	"filename": "Card_53_0017",
	"frame": {"x":1953,"y":1,"w":147,"h":147},
	"rotated": false,
	"trimmed": true,
	"spriteSourceSize": {"x":35,"y":66,"w":147,"h":147},
	"sourceSize": {"w":211,"h":275},
	"pivot": {"x":0.5,"y":0.5}
},
{
	"filename": "Card_53_0018",
	"frame": {"x":2102,"y":1,"w":147,"h":147},
	"rotated": false,
	"trimmed": true,
	"spriteSourceSize": {"x":35,"y":66,"w":147,"h":147},
	"sourceSize": {"w":211,"h":275},
	"pivot": {"x":0.5,"y":0.5}
},
{
	"filename": "Card_53_0019",
	"frame": {"x":2251,"y":1,"w":148,"h":147},
	"rotated": false,
	"trimmed": true,
	"spriteSourceSize": {"x":34,"y":66,"w":148,"h":147},
	"sourceSize": {"w":211,"h":275},
	"pivot": {"x":0.5,"y":0.5}
},
{
	"filename": "Card_53_0020",
	"frame": {"x":2401,"y":1,"w":148,"h":147},
	"rotated": false,
	"trimmed": true,
	"spriteSourceSize": {"x":34,"y":66,"w":148,"h":147},
	"sourceSize": {"w":211,"h":275},
	"pivot": {"x":0.5,"y":0.5}
},
{
	"filename": "Card_53_0021",
	"frame": {"x":2551,"y":1,"w":148,"h":147},
	"rotated": false,
	"trimmed": true,
	"spriteSourceSize": {"x":34,"y":66,"w":148,"h":147},
	"sourceSize": {"w":211,"h":275},
	"pivot": {"x":0.5,"y":0.5}
},
{
	"filename": "Card_53_0022",
	"frame": {"x":2701,"y":1,"w":148,"h":148},
	"rotated": false,
	"trimmed": true,
	"spriteSourceSize": {"x":34,"y":66,"w":148,"h":148},
	"sourceSize": {"w":211,"h":275},
	"pivot": {"x":0.5,"y":0.5}
},
{
	"filename": "Card_53_0023",
	"frame": {"x":1,"y":151,"w":149,"h":148},
	"rotated": false,
	"trimmed": true,
	"spriteSourceSize": {"x":34,"y":66,"w":149,"h":148},
	"sourceSize": {"w":211,"h":275},
	"pivot": {"x":0.5,"y":0.5}
},
{
	"filename": "Card_53_0024",
	"frame": {"x":152,"y":151,"w":149,"h":148},
	"rotated": false,
	"trimmed": true,
	"spriteSourceSize": {"x":34,"y":66,"w":149,"h":148},
	"sourceSize": {"w":211,"h":275},
	"pivot": {"x":0.5,"y":0.5}
},
{
	"filename": "Card_53_0025",
	"frame": {"x":303,"y":151,"w":149,"h":148},
	"rotated": false,
	"trimmed": true,
	"spriteSourceSize": {"x":34,"y":66,"w":149,"h":148},
	"sourceSize": {"w":211,"h":275},
	"pivot": {"x":0.5,"y":0.5}
},
{
	"filename": "Card_53_0026",
	"frame": {"x":454,"y":151,"w":149,"h":149},
	"rotated": false,
	"trimmed": true,
	"spriteSourceSize": {"x":34,"y":65,"w":149,"h":149},
	"sourceSize": {"w":211,"h":275},
	"pivot": {"x":0.5,"y":0.5}
},
{
	"filename": "Card_53_0027",
	"frame": {"x":605,"y":151,"w":149,"h":149},
	"rotated": false,
	"trimmed": true,
	"spriteSourceSize": {"x":34,"y":65,"w":149,"h":149},
	"sourceSize": {"w":211,"h":275},
	"pivot": {"x":0.5,"y":0.5}
},
{
	"filename": "Card_53_0028",
	"frame": {"x":756,"y":151,"w":150,"h":149},
	"rotated": false,
	"trimmed": true,
	"spriteSourceSize": {"x":33,"y":65,"w":150,"h":149},
	"sourceSize": {"w":211,"h":275},
	"pivot": {"x":0.5,"y":0.5}
},
{
	"filename": "Card_53_0029",
	"frame": {"x":908,"y":151,"w":150,"h":149},
	"rotated": false,
	"trimmed": true,
	"spriteSourceSize": {"x":33,"y":65,"w":150,"h":149},
	"sourceSize": {"w":211,"h":275},
	"pivot": {"x":0.5,"y":0.5}
},
{
	"filename": "Card_53_0030",
	"frame": {"x":1060,"y":151,"w":150,"h":150},
	"rotated": false,
	"trimmed": true,
	"spriteSourceSize": {"x":33,"y":65,"w":150,"h":150},
	"sourceSize": {"w":211,"h":275},
	"pivot": {"x":0.5,"y":0.5}
},
{
	"filename": "Card_53_0031",
	"frame": {"x":1212,"y":151,"w":150,"h":150},
	"rotated": false,
	"trimmed": true,
	"spriteSourceSize": {"x":33,"y":65,"w":150,"h":150},
	"sourceSize": {"w":211,"h":275},
	"pivot": {"x":0.5,"y":0.5}
},
{
	"filename": "Card_53_0032",
	"frame": {"x":1364,"y":151,"w":151,"h":150},
	"rotated": false,
	"trimmed": true,
	"spriteSourceSize": {"x":33,"y":65,"w":151,"h":150},
	"sourceSize": {"w":211,"h":275},
	"pivot": {"x":0.5,"y":0.5}
},
{
	"filename": "Card_53_0033",
	"frame": {"x":1517,"y":151,"w":151,"h":150},
	"rotated": false,
	"trimmed": true,
	"spriteSourceSize": {"x":33,"y":65,"w":151,"h":150},
	"sourceSize": {"w":211,"h":275},
	"pivot": {"x":0.5,"y":0.5}
},
{
	"filename": "Card_53_0034",
	"frame": {"x":1670,"y":151,"w":151,"h":151},
	"rotated": false,
	"trimmed": true,
	"spriteSourceSize": {"x":33,"y":64,"w":151,"h":151},
	"sourceSize": {"w":211,"h":275},
	"pivot": {"x":0.5,"y":0.5}
},
{
	"filename": "Card_53_0035",
	"frame": {"x":1823,"y":151,"w":151,"h":151},
	"rotated": false,
	"trimmed": true,
	"spriteSourceSize": {"x":33,"y":64,"w":151,"h":151},
	"sourceSize": {"w":211,"h":275},
	"pivot": {"x":0.5,"y":0.5}
},
{
	"filename": "Card_53_0036",
	"frame": {"x":1976,"y":151,"w":151,"h":151},
	"rotated": false,
	"trimmed": true,
	"spriteSourceSize": {"x":33,"y":64,"w":151,"h":151},
	"sourceSize": {"w":211,"h":275},
	"pivot": {"x":0.5,"y":0.5}
},
{
	"filename": "Card_53_0037",
	"frame": {"x":2129,"y":151,"w":152,"h":151},
	"rotated": false,
	"trimmed": true,
	"spriteSourceSize": {"x":32,"y":64,"w":152,"h":151},
	"sourceSize": {"w":211,"h":275},
	"pivot": {"x":0.5,"y":0.5}
},
{
	"filename": "Card_53_0038",
	"frame": {"x":2283,"y":151,"w":152,"h":151},
	"rotated": false,
	"trimmed": true,
	"spriteSourceSize": {"x":32,"y":64,"w":152,"h":151},
	"sourceSize": {"w":211,"h":275},
	"pivot": {"x":0.5,"y":0.5}
},
{
	"filename": "Card_53_0039",
	"frame": {"x":2437,"y":151,"w":152,"h":153},
	"rotated": false,
	"trimmed": true,
	"spriteSourceSize": {"x":32,"y":63,"w":152,"h":153},
	"sourceSize": {"w":211,"h":275},
	"pivot": {"x":0.5,"y":0.5}
},
{
	"filename": "Card_53_0040",
	"frame": {"x":2591,"y":151,"w":152,"h":153},
	"rotated": false,
	"trimmed": true,
	"spriteSourceSize": {"x":32,"y":63,"w":152,"h":153},
	"sourceSize": {"w":211,"h":275},
	"pivot": {"x":0.5,"y":0.5}
},
{
	"filename": "Card_53_0041",
	"frame": {"x":2745,"y":151,"w":153,"h":153},
	"rotated": false,
	"trimmed": true,
	"spriteSourceSize": {"x":32,"y":63,"w":153,"h":153},
	"sourceSize": {"w":211,"h":275},
	"pivot": {"x":0.5,"y":0.5}
},
{
	"filename": "Card_53_0042",
	"frame": {"x":1,"y":306,"w":153,"h":153},
	"rotated": false,
	"trimmed": true,
	"spriteSourceSize": {"x":32,"y":63,"w":153,"h":153},
	"sourceSize": {"w":211,"h":275},
	"pivot": {"x":0.5,"y":0.5}
},
{
	"filename": "Card_53_0043",
	"frame": {"x":156,"y":306,"w":153,"h":153},
	"rotated": false,
	"trimmed": true,
	"spriteSourceSize": {"x":32,"y":63,"w":153,"h":153},
	"sourceSize": {"w":211,"h":275},
	"pivot": {"x":0.5,"y":0.5}
},
{
	"filename": "Card_53_0044",
	"frame": {"x":311,"y":306,"w":153,"h":154},
	"rotated": false,
	"trimmed": true,
	"spriteSourceSize": {"x":32,"y":63,"w":153,"h":154},
	"sourceSize": {"w":211,"h":275},
	"pivot": {"x":0.5,"y":0.5}
},
{
	"filename": "Card_53_0045",
	"frame": {"x":466,"y":306,"w":153,"h":154},
	"rotated": false,
	"trimmed": true,
	"spriteSourceSize": {"x":32,"y":63,"w":153,"h":154},
	"sourceSize": {"w":211,"h":275},
	"pivot": {"x":0.5,"y":0.5}
},
{
	"filename": "Card_53_0046",
	"frame": {"x":621,"y":306,"w":155,"h":154},
	"rotated": false,
	"trimmed": true,
	"spriteSourceSize": {"x":31,"y":63,"w":155,"h":154},
	"sourceSize": {"w":211,"h":275},
	"pivot": {"x":0.5,"y":0.5}
},
{
	"filename": "Card_53_0047",
	"frame": {"x":778,"y":306,"w":155,"h":154},
	"rotated": false,
	"trimmed": true,
	"spriteSourceSize": {"x":31,"y":63,"w":155,"h":154},
	"sourceSize": {"w":211,"h":275},
	"pivot": {"x":0.5,"y":0.5}
},
{
	"filename": "Card_53_0048",
	"frame": {"x":935,"y":306,"w":155,"h":155},
	"rotated": false,
	"trimmed": true,
	"spriteSourceSize": {"x":31,"y":62,"w":155,"h":155},
	"sourceSize": {"w":211,"h":275},
	"pivot": {"x":0.5,"y":0.5}
},
{
	"filename": "Card_53_0049",
	"frame": {"x":1092,"y":306,"w":155,"h":155},
	"rotated": false,
	"trimmed": true,
	"spriteSourceSize": {"x":31,"y":62,"w":155,"h":155},
	"sourceSize": {"w":211,"h":275},
	"pivot": {"x":0.5,"y":0.5}
},
{
	"filename": "Card_53_0050",
	"frame": {"x":1249,"y":306,"w":155,"h":155},
	"rotated": false,
	"trimmed": true,
	"spriteSourceSize": {"x":31,"y":62,"w":155,"h":155},
	"sourceSize": {"w":211,"h":275},
	"pivot": {"x":0.5,"y":0.5}
},
{
	"filename": "Card_53_0051",
	"frame": {"x":1406,"y":306,"w":156,"h":155},
	"rotated": false,
	"trimmed": true,
	"spriteSourceSize": {"x":30,"y":62,"w":156,"h":155},
	"sourceSize": {"w":211,"h":275},
	"pivot": {"x":0.5,"y":0.5}
},
{
	"filename": "Card_53_0052",
	"frame": {"x":1564,"y":306,"w":156,"h":155},
	"rotated": false,
	"trimmed": true,
	"spriteSourceSize": {"x":30,"y":62,"w":156,"h":155},
	"sourceSize": {"w":211,"h":275},
	"pivot": {"x":0.5,"y":0.5}
},
{
	"filename": "Card_53_0053",
	"frame": {"x":1722,"y":306,"w":156,"h":156},
	"rotated": false,
	"trimmed": true,
	"spriteSourceSize": {"x":30,"y":62,"w":156,"h":156},
	"sourceSize": {"w":211,"h":275},
	"pivot": {"x":0.5,"y":0.5}
},
{
	"filename": "Card_53_0054",
	"frame": {"x":1880,"y":306,"w":156,"h":155},
	"rotated": false,
	"trimmed": true,
	"spriteSourceSize": {"x":30,"y":62,"w":156,"h":155},
	"sourceSize": {"w":211,"h":275},
	"pivot": {"x":0.5,"y":0.5}
},
{
	"filename": "Card_53_0055",
	"frame": {"x":2038,"y":306,"w":156,"h":156},
	"rotated": false,
	"trimmed": true,
	"spriteSourceSize": {"x":30,"y":62,"w":156,"h":156},
	"sourceSize": {"w":211,"h":275},
	"pivot": {"x":0.5,"y":0.5}
},
{
	"filename": "Card_53_0056",
	"frame": {"x":2196,"y":306,"w":157,"h":156},
	"rotated": false,
	"trimmed": true,
	"spriteSourceSize": {"x":30,"y":62,"w":157,"h":156},
	"sourceSize": {"w":211,"h":275},
	"pivot": {"x":0.5,"y":0.5}
},
{
	"filename": "Card_53_0057",
	"frame": {"x":2355,"y":306,"w":157,"h":156},
	"rotated": false,
	"trimmed": true,
	"spriteSourceSize": {"x":30,"y":62,"w":157,"h":156},
	"sourceSize": {"w":211,"h":275},
	"pivot": {"x":0.5,"y":0.5}
},
{
	"filename": "Card_53_0058",
	"frame": {"x":2514,"y":306,"w":157,"h":156},
	"rotated": false,
	"trimmed": true,
	"spriteSourceSize": {"x":30,"y":62,"w":157,"h":156},
	"sourceSize": {"w":211,"h":275},
	"pivot": {"x":0.5,"y":0.5}
},
{
	"filename": "Card_53_0059",
	"frame": {"x":2673,"y":306,"w":157,"h":157},
	"rotated": false,
	"trimmed": true,
	"spriteSourceSize": {"x":30,"y":61,"w":157,"h":157},
	"sourceSize": {"w":211,"h":275},
	"pivot": {"x":0.5,"y":0.5}
},
{
	"filename": "Card_53_0060",
	"frame": {"x":2832,"y":306,"w":157,"h":149},
	"rotated": false,
	"trimmed": true,
	"spriteSourceSize": {"x":30,"y":61,"w":157,"h":149},
	"sourceSize": {"w":211,"h":275},
	"pivot": {"x":0.5,"y":0.5}
}],
"meta": {
	"app": "http://www.codeandweb.com/texturepacker",
	"version": "1.0",
	"image": "card_53.png",
	"format": "INDEXED",
	"size": {"w":2990,"h":464},
	"scale": "1",
	"smartupdate": "$TexturePacker:SmartUpdate:b0a6b0b18ccbd7110e58805c30e14554:c6ed1f449a66e8667478e73bf7c99026:1c92ad16f17e45c647fa48d7812532a2$"
}
}
