{"frames": [

{
	"filename": "Card_25_0000",
	"frame": {"x":1,"y":1,"w":17,"h":15},
	"rotated": false,
	"trimmed": true,
	"spriteSourceSize": {"x":82,"y":162,"w":17,"h":15},
	"sourceSize": {"w":186,"h":211},
	"pivot": {"x":0.5,"y":0.5}
},
{
	"filename": "Card_25_0001",
	"frame": {"x":20,"y":1,"w":92,"h":53},
	"rotated": false,
	"trimmed": true,
	"spriteSourceSize": {"x":47,"y":158,"w":92,"h":53},
	"sourceSize": {"w":186,"h":211},
	"pivot": {"x":0.5,"y":0.5}
},
{
	"filename": "Card_25_0002",
	"frame": {"x":114,"y":1,"w":160,"h":58},
	"rotated": false,
	"trimmed": true,
	"spriteSourceSize": {"x":13,"y":153,"w":160,"h":58},
	"sourceSize": {"w":186,"h":211},
	"pivot": {"x":0.5,"y":0.5}
},
{
	"filename": "Card_25_0003",
	"frame": {"x":276,"y":1,"w":160,"h":64},
	"rotated": false,
	"trimmed": true,
	"spriteSourceSize": {"x":13,"y":147,"w":160,"h":64},
	"sourceSize": {"w":186,"h":211},
	"pivot": {"x":0.5,"y":0.5}
},
{
	"filename": "Card_25_0004",
	"frame": {"x":438,"y":1,"w":186,"h":81},
	"rotated": false,
	"trimmed": true,
	"spriteSourceSize": {"x":0,"y":130,"w":186,"h":81},
	"sourceSize": {"w":186,"h":211},
	"pivot": {"x":0.5,"y":0.5}
},
{
	"filename": "Card_25_0005",
	"frame": {"x":626,"y":1,"w":186,"h":105},
	"rotated": false,
	"trimmed": true,
	"spriteSourceSize": {"x":0,"y":106,"w":186,"h":105},
	"sourceSize": {"w":186,"h":211},
	"pivot": {"x":0.5,"y":0.5}
},
{
	"filename": "Card_25_0006",
	"frame": {"x":814,"y":1,"w":186,"h":130},
	"rotated": false,
	"trimmed": true,
	"spriteSourceSize": {"x":0,"y":81,"w":186,"h":130},
	"sourceSize": {"w":186,"h":211},
	"pivot": {"x":0.5,"y":0.5}
},
{
	"filename": "Card_25_0007",
	"frame": {"x":1002,"y":1,"w":186,"h":130},
	"rotated": false,
	"trimmed": true,
	"spriteSourceSize": {"x":0,"y":81,"w":186,"h":130},
	"sourceSize": {"w":186,"h":211},
	"pivot": {"x":0.5,"y":0.5}
},
{
	"filename": "Card_25_0008",
	"frame": {"x":1190,"y":1,"w":186,"h":156},
	"rotated": false,
	"trimmed": true,
	"spriteSourceSize": {"x":0,"y":55,"w":186,"h":156},
	"sourceSize": {"w":186,"h":211},
	"pivot": {"x":0.5,"y":0.5}
},
{
	"filename": "Card_25_0009",
	"frame": {"x":1378,"y":1,"w":186,"h":182},
	"rotated": false,
	"trimmed": true,
	"spriteSourceSize": {"x":0,"y":29,"w":186,"h":182},
	"sourceSize": {"w":186,"h":211},
	"pivot": {"x":0.5,"y":0.5}
},
{
	"filename": "Card_25_0010",
	"frame": {"x":1566,"y":1,"w":186,"h":182},
	"rotated": false,
	"trimmed": true,
	"spriteSourceSize": {"x":0,"y":29,"w":186,"h":182},
	"sourceSize": {"w":186,"h":211},
	"pivot": {"x":0.5,"y":0.5}
},
{
	"filename": "Card_25_0011",
	"frame": {"x":1754,"y":1,"w":186,"h":207},
	"rotated": false,
	"trimmed": true,
	"spriteSourceSize": {"x":0,"y":4,"w":186,"h":207},
	"sourceSize": {"w":186,"h":211},
	"pivot": {"x":0.5,"y":0.5}
},
{
	"filename": "Card_25_0012",
	"frame": {"x":1942,"y":1,"w":186,"h":211},
	"rotated": false,
	"trimmed": false,
	"spriteSourceSize": {"x":0,"y":0,"w":186,"h":211},
	"sourceSize": {"w":186,"h":211},
	"pivot": {"x":0.5,"y":0.5}
},
{
	"filename": "Card_25_0013",
	"frame": {"x":2130,"y":1,"w":186,"h":211},
	"rotated": false,
	"trimmed": false,
	"spriteSourceSize": {"x":0,"y":0,"w":186,"h":211},
	"sourceSize": {"w":186,"h":211},
	"pivot": {"x":0.5,"y":0.5}
},
{
	"filename": "Card_25_0014",
	"frame": {"x":2318,"y":1,"w":186,"h":211},
	"rotated": false,
	"trimmed": false,
	"spriteSourceSize": {"x":0,"y":0,"w":186,"h":211},
	"sourceSize": {"w":186,"h":211},
	"pivot": {"x":0.5,"y":0.5}
},
{
	"filename": "Card_25_0015",
	"frame": {"x":2506,"y":1,"w":186,"h":211},
	"rotated": false,
	"trimmed": false,
	"spriteSourceSize": {"x":0,"y":0,"w":186,"h":211},
	"sourceSize": {"w":186,"h":211},
	"pivot": {"x":0.5,"y":0.5}
},
{
	"filename": "Card_25_0016",
	"frame": {"x":2694,"y":1,"w":186,"h":211},
	"rotated": false,
	"trimmed": false,
	"spriteSourceSize": {"x":0,"y":0,"w":186,"h":211},
	"sourceSize": {"w":186,"h":211},
	"pivot": {"x":0.5,"y":0.5}
},
{
	"filename": "Card_25_0017",
	"frame": {"x":2882,"y":1,"w":186,"h":211},
	"rotated": false,
	"trimmed": false,
	"spriteSourceSize": {"x":0,"y":0,"w":186,"h":211},
	"sourceSize": {"w":186,"h":211},
	"pivot": {"x":0.5,"y":0.5}
},
{
	"filename": "Card_25_0018",
	"frame": {"x":3070,"y":1,"w":186,"h":211},
	"rotated": false,
	"trimmed": false,
	"spriteSourceSize": {"x":0,"y":0,"w":186,"h":211},
	"sourceSize": {"w":186,"h":211},
	"pivot": {"x":0.5,"y":0.5}
},
{
	"filename": "Card_25_0019",
	"frame": {"x":3258,"y":1,"w":186,"h":211},
	"rotated": false,
	"trimmed": false,
	"spriteSourceSize": {"x":0,"y":0,"w":186,"h":211},
	"sourceSize": {"w":186,"h":211},
	"pivot": {"x":0.5,"y":0.5}
},
{
	"filename": "Card_25_0020",
	"frame": {"x":3446,"y":1,"w":186,"h":211},
	"rotated": false,
	"trimmed": false,
	"spriteSourceSize": {"x":0,"y":0,"w":186,"h":211},
	"sourceSize": {"w":186,"h":211},
	"pivot": {"x":0.5,"y":0.5}
},
{
	"filename": "Card_25_0021",
	"frame": {"x":3634,"y":1,"w":186,"h":211},
	"rotated": false,
	"trimmed": false,
	"spriteSourceSize": {"x":0,"y":0,"w":186,"h":211},
	"sourceSize": {"w":186,"h":211},
	"pivot": {"x":0.5,"y":0.5}
},
{
	"filename": "Card_25_0022",
	"frame": {"x":1,"y":214,"w":186,"h":211},
	"rotated": false,
	"trimmed": false,
	"spriteSourceSize": {"x":0,"y":0,"w":186,"h":211},
	"sourceSize": {"w":186,"h":211},
	"pivot": {"x":0.5,"y":0.5}
},
{
	"filename": "Card_25_0023",
	"frame": {"x":189,"y":214,"w":186,"h":211},
	"rotated": false,
	"trimmed": false,
	"spriteSourceSize": {"x":0,"y":0,"w":186,"h":211},
	"sourceSize": {"w":186,"h":211},
	"pivot": {"x":0.5,"y":0.5}
},
{
	"filename": "Card_25_0024",
	"frame": {"x":377,"y":214,"w":186,"h":211},
	"rotated": false,
	"trimmed": false,
	"spriteSourceSize": {"x":0,"y":0,"w":186,"h":211},
	"sourceSize": {"w":186,"h":211},
	"pivot": {"x":0.5,"y":0.5}
},
{
	"filename": "Card_25_0025",
	"frame": {"x":565,"y":214,"w":186,"h":211},
	"rotated": false,
	"trimmed": false,
	"spriteSourceSize": {"x":0,"y":0,"w":186,"h":211},
	"sourceSize": {"w":186,"h":211},
	"pivot": {"x":0.5,"y":0.5}
},
{
	"filename": "Card_25_0026",
	"frame": {"x":753,"y":214,"w":186,"h":211},
	"rotated": false,
	"trimmed": false,
	"spriteSourceSize": {"x":0,"y":0,"w":186,"h":211},
	"sourceSize": {"w":186,"h":211},
	"pivot": {"x":0.5,"y":0.5}
},
{
	"filename": "Card_25_0027",
	"frame": {"x":941,"y":214,"w":186,"h":211},
	"rotated": false,
	"trimmed": false,
	"spriteSourceSize": {"x":0,"y":0,"w":186,"h":211},
	"sourceSize": {"w":186,"h":211},
	"pivot": {"x":0.5,"y":0.5}
},
{
	"filename": "Card_25_0028",
	"frame": {"x":1129,"y":214,"w":186,"h":211},
	"rotated": false,
	"trimmed": false,
	"spriteSourceSize": {"x":0,"y":0,"w":186,"h":211},
	"sourceSize": {"w":186,"h":211},
	"pivot": {"x":0.5,"y":0.5}
},
{
	"filename": "Card_25_0029",
	"frame": {"x":1317,"y":214,"w":186,"h":211},
	"rotated": false,
	"trimmed": false,
	"spriteSourceSize": {"x":0,"y":0,"w":186,"h":211},
	"sourceSize": {"w":186,"h":211},
	"pivot": {"x":0.5,"y":0.5}
},
{
	"filename": "Card_25_0030",
	"frame": {"x":1505,"y":214,"w":186,"h":211},
	"rotated": false,
	"trimmed": false,
	"spriteSourceSize": {"x":0,"y":0,"w":186,"h":211},
	"sourceSize": {"w":186,"h":211},
	"pivot": {"x":0.5,"y":0.5}
},
{
	"filename": "Card_25_0031",
	"frame": {"x":1693,"y":214,"w":186,"h":211},
	"rotated": false,
	"trimmed": false,
	"spriteSourceSize": {"x":0,"y":0,"w":186,"h":211},
	"sourceSize": {"w":186,"h":211},
	"pivot": {"x":0.5,"y":0.5}
},
{
	"filename": "Card_25_0032",
	"frame": {"x":1881,"y":214,"w":186,"h":211},
	"rotated": false,
	"trimmed": false,
	"spriteSourceSize": {"x":0,"y":0,"w":186,"h":211},
	"sourceSize": {"w":186,"h":211},
	"pivot": {"x":0.5,"y":0.5}
},
{
	"filename": "Card_25_0033",
	"frame": {"x":2069,"y":214,"w":186,"h":211},
	"rotated": false,
	"trimmed": false,
	"spriteSourceSize": {"x":0,"y":0,"w":186,"h":211},
	"sourceSize": {"w":186,"h":211},
	"pivot": {"x":0.5,"y":0.5}
},
{
	"filename": "Card_25_0034",
	"frame": {"x":2257,"y":214,"w":186,"h":211},
	"rotated": false,
	"trimmed": false,
	"spriteSourceSize": {"x":0,"y":0,"w":186,"h":211},
	"sourceSize": {"w":186,"h":211},
	"pivot": {"x":0.5,"y":0.5}
},
{
	"filename": "Card_25_0035",
	"frame": {"x":2445,"y":214,"w":186,"h":211},
	"rotated": false,
	"trimmed": false,
	"spriteSourceSize": {"x":0,"y":0,"w":186,"h":211},
	"sourceSize": {"w":186,"h":211},
	"pivot": {"x":0.5,"y":0.5}
},
{
	"filename": "Card_25_0036",
	"frame": {"x":2633,"y":214,"w":186,"h":211},
	"rotated": false,
	"trimmed": false,
	"spriteSourceSize": {"x":0,"y":0,"w":186,"h":211},
	"sourceSize": {"w":186,"h":211},
	"pivot": {"x":0.5,"y":0.5}
},
{
	"filename": "Card_25_0037",
	"frame": {"x":2821,"y":214,"w":186,"h":211},
	"rotated": false,
	"trimmed": false,
	"spriteSourceSize": {"x":0,"y":0,"w":186,"h":211},
	"sourceSize": {"w":186,"h":211},
	"pivot": {"x":0.5,"y":0.5}
},
{
	"filename": "Card_25_0038",
	"frame": {"x":3009,"y":214,"w":186,"h":211},
	"rotated": false,
	"trimmed": false,
	"spriteSourceSize": {"x":0,"y":0,"w":186,"h":211},
	"sourceSize": {"w":186,"h":211},
	"pivot": {"x":0.5,"y":0.5}
},
{
	"filename": "Card_25_0039",
	"frame": {"x":3197,"y":214,"w":186,"h":211},
	"rotated": false,
	"trimmed": false,
	"spriteSourceSize": {"x":0,"y":0,"w":186,"h":211},
	"sourceSize": {"w":186,"h":211},
	"pivot": {"x":0.5,"y":0.5}
},
{
	"filename": "Card_25_0040",
	"frame": {"x":3385,"y":214,"w":186,"h":211},
	"rotated": false,
	"trimmed": false,
	"spriteSourceSize": {"x":0,"y":0,"w":186,"h":211},
	"sourceSize": {"w":186,"h":211},
	"pivot": {"x":0.5,"y":0.5}
},
{
	"filename": "Card_25_0041",
	"frame": {"x":3573,"y":214,"w":186,"h":211},
	"rotated": false,
	"trimmed": false,
	"spriteSourceSize": {"x":0,"y":0,"w":186,"h":211},
	"sourceSize": {"w":186,"h":211},
	"pivot": {"x":0.5,"y":0.5}
},
{
	"filename": "Card_25_0042",
	"frame": {"x":3761,"y":214,"w":186,"h":211},
	"rotated": false,
	"trimmed": false,
	"spriteSourceSize": {"x":0,"y":0,"w":186,"h":211},
	"sourceSize": {"w":186,"h":211},
	"pivot": {"x":0.5,"y":0.5}
},
{
	"filename": "Card_25_0043",
	"frame": {"x":1,"y":427,"w":186,"h":211},
	"rotated": false,
	"trimmed": false,
	"spriteSourceSize": {"x":0,"y":0,"w":186,"h":211},
	"sourceSize": {"w":186,"h":211},
	"pivot": {"x":0.5,"y":0.5}
},
{
	"filename": "Card_25_0044",
	"frame": {"x":189,"y":427,"w":186,"h":211},
	"rotated": false,
	"trimmed": false,
	"spriteSourceSize": {"x":0,"y":0,"w":186,"h":211},
	"sourceSize": {"w":186,"h":211},
	"pivot": {"x":0.5,"y":0.5}
},
{
	"filename": "Card_25_0045",
	"frame": {"x":377,"y":427,"w":186,"h":211},
	"rotated": false,
	"trimmed": false,
	"spriteSourceSize": {"x":0,"y":0,"w":186,"h":211},
	"sourceSize": {"w":186,"h":211},
	"pivot": {"x":0.5,"y":0.5}
},
{
	"filename": "Card_25_0046",
	"frame": {"x":565,"y":427,"w":186,"h":211},
	"rotated": false,
	"trimmed": false,
	"spriteSourceSize": {"x":0,"y":0,"w":186,"h":211},
	"sourceSize": {"w":186,"h":211},
	"pivot": {"x":0.5,"y":0.5}
},
{
	"filename": "Card_25_0047",
	"frame": {"x":753,"y":427,"w":186,"h":211},
	"rotated": false,
	"trimmed": false,
	"spriteSourceSize": {"x":0,"y":0,"w":186,"h":211},
	"sourceSize": {"w":186,"h":211},
	"pivot": {"x":0.5,"y":0.5}
},
{
	"filename": "Card_25_0048",
	"frame": {"x":941,"y":427,"w":186,"h":211},
	"rotated": false,
	"trimmed": false,
	"spriteSourceSize": {"x":0,"y":0,"w":186,"h":211},
	"sourceSize": {"w":186,"h":211},
	"pivot": {"x":0.5,"y":0.5}
},
{
	"filename": "Card_25_0049",
	"frame": {"x":1129,"y":427,"w":186,"h":211},
	"rotated": false,
	"trimmed": false,
	"spriteSourceSize": {"x":0,"y":0,"w":186,"h":211},
	"sourceSize": {"w":186,"h":211},
	"pivot": {"x":0.5,"y":0.5}
},
{
	"filename": "Card_25_0050",
	"frame": {"x":1317,"y":427,"w":186,"h":211},
	"rotated": false,
	"trimmed": false,
	"spriteSourceSize": {"x":0,"y":0,"w":186,"h":211},
	"sourceSize": {"w":186,"h":211},
	"pivot": {"x":0.5,"y":0.5}
},
{
	"filename": "Card_25_0051",
	"frame": {"x":1505,"y":427,"w":186,"h":211},
	"rotated": false,
	"trimmed": false,
	"spriteSourceSize": {"x":0,"y":0,"w":186,"h":211},
	"sourceSize": {"w":186,"h":211},
	"pivot": {"x":0.5,"y":0.5}
},
{
	"filename": "Card_25_0052",
	"frame": {"x":1693,"y":427,"w":186,"h":211},
	"rotated": false,
	"trimmed": false,
	"spriteSourceSize": {"x":0,"y":0,"w":186,"h":211},
	"sourceSize": {"w":186,"h":211},
	"pivot": {"x":0.5,"y":0.5}
},
{
	"filename": "Card_25_0053",
	"frame": {"x":1881,"y":427,"w":186,"h":211},
	"rotated": false,
	"trimmed": false,
	"spriteSourceSize": {"x":0,"y":0,"w":186,"h":211},
	"sourceSize": {"w":186,"h":211},
	"pivot": {"x":0.5,"y":0.5}
},
{
	"filename": "Card_25_0054",
	"frame": {"x":2069,"y":427,"w":186,"h":211},
	"rotated": false,
	"trimmed": false,
	"spriteSourceSize": {"x":0,"y":0,"w":186,"h":211},
	"sourceSize": {"w":186,"h":211},
	"pivot": {"x":0.5,"y":0.5}
},
{
	"filename": "Card_25_0055",
	"frame": {"x":2257,"y":427,"w":186,"h":211},
	"rotated": false,
	"trimmed": false,
	"spriteSourceSize": {"x":0,"y":0,"w":186,"h":211},
	"sourceSize": {"w":186,"h":211},
	"pivot": {"x":0.5,"y":0.5}
},
{
	"filename": "Card_25_0056",
	"frame": {"x":2445,"y":427,"w":186,"h":211},
	"rotated": false,
	"trimmed": false,
	"spriteSourceSize": {"x":0,"y":0,"w":186,"h":211},
	"sourceSize": {"w":186,"h":211},
	"pivot": {"x":0.5,"y":0.5}
},
{
	"filename": "Card_25_0057",
	"frame": {"x":2633,"y":427,"w":186,"h":211},
	"rotated": false,
	"trimmed": false,
	"spriteSourceSize": {"x":0,"y":0,"w":186,"h":211},
	"sourceSize": {"w":186,"h":211},
	"pivot": {"x":0.5,"y":0.5}
},
{
	"filename": "Card_25_0058",
	"frame": {"x":2821,"y":427,"w":186,"h":211},
	"rotated": false,
	"trimmed": false,
	"spriteSourceSize": {"x":0,"y":0,"w":186,"h":211},
	"sourceSize": {"w":186,"h":211},
	"pivot": {"x":0.5,"y":0.5}
},
{
	"filename": "Card_25_0059",
	"frame": {"x":3009,"y":427,"w":186,"h":211},
	"rotated": false,
	"trimmed": false,
	"spriteSourceSize": {"x":0,"y":0,"w":186,"h":211},
	"sourceSize": {"w":186,"h":211},
	"pivot": {"x":0.5,"y":0.5}
},
{
	"filename": "Card_25_0060",
	"frame": {"x":3197,"y":427,"w":186,"h":211},
	"rotated": false,
	"trimmed": false,
	"spriteSourceSize": {"x":0,"y":0,"w":186,"h":211},
	"sourceSize": {"w":186,"h":211},
	"pivot": {"x":0.5,"y":0.5}
},
{
	"filename": "Card_25_0061",
	"frame": {"x":3385,"y":427,"w":186,"h":211},
	"rotated": false,
	"trimmed": false,
	"spriteSourceSize": {"x":0,"y":0,"w":186,"h":211},
	"sourceSize": {"w":186,"h":211},
	"pivot": {"x":0.5,"y":0.5}
},
{
	"filename": "Card_25_0062",
	"frame": {"x":3573,"y":427,"w":186,"h":211},
	"rotated": false,
	"trimmed": false,
	"spriteSourceSize": {"x":0,"y":0,"w":186,"h":211},
	"sourceSize": {"w":186,"h":211},
	"pivot": {"x":0.5,"y":0.5}
},
{
	"filename": "Card_25_0063",
	"frame": {"x":3761,"y":427,"w":186,"h":211},
	"rotated": false,
	"trimmed": false,
	"spriteSourceSize": {"x":0,"y":0,"w":186,"h":211},
	"sourceSize": {"w":186,"h":211},
	"pivot": {"x":0.5,"y":0.5}
},
{
	"filename": "Card_25_0064",
	"frame": {"x":1,"y":640,"w":186,"h":211},
	"rotated": false,
	"trimmed": false,
	"spriteSourceSize": {"x":0,"y":0,"w":186,"h":211},
	"sourceSize": {"w":186,"h":211},
	"pivot": {"x":0.5,"y":0.5}
},
{
	"filename": "Card_25_0065",
	"frame": {"x":189,"y":640,"w":186,"h":211},
	"rotated": false,
	"trimmed": false,
	"spriteSourceSize": {"x":0,"y":0,"w":186,"h":211},
	"sourceSize": {"w":186,"h":211},
	"pivot": {"x":0.5,"y":0.5}
},
{
	"filename": "Card_25_0066",
	"frame": {"x":377,"y":640,"w":186,"h":211},
	"rotated": false,
	"trimmed": false,
	"spriteSourceSize": {"x":0,"y":0,"w":186,"h":211},
	"sourceSize": {"w":186,"h":211},
	"pivot": {"x":0.5,"y":0.5}
},
{
	"filename": "Card_25_0067",
	"frame": {"x":565,"y":640,"w":186,"h":211},
	"rotated": false,
	"trimmed": false,
	"spriteSourceSize": {"x":0,"y":0,"w":186,"h":211},
	"sourceSize": {"w":186,"h":211},
	"pivot": {"x":0.5,"y":0.5}
},
{
	"filename": "Card_25_0068",
	"frame": {"x":753,"y":640,"w":186,"h":211},
	"rotated": false,
	"trimmed": false,
	"spriteSourceSize": {"x":0,"y":0,"w":186,"h":211},
	"sourceSize": {"w":186,"h":211},
	"pivot": {"x":0.5,"y":0.5}
},
{
	"filename": "Card_25_0069",
	"frame": {"x":941,"y":640,"w":186,"h":211},
	"rotated": false,
	"trimmed": false,
	"spriteSourceSize": {"x":0,"y":0,"w":186,"h":211},
	"sourceSize": {"w":186,"h":211},
	"pivot": {"x":0.5,"y":0.5}
},
{
	"filename": "Card_25_0070",
	"frame": {"x":1129,"y":640,"w":186,"h":211},
	"rotated": false,
	"trimmed": false,
	"spriteSourceSize": {"x":0,"y":0,"w":186,"h":211},
	"sourceSize": {"w":186,"h":211},
	"pivot": {"x":0.5,"y":0.5}
},
{
	"filename": "Card_25_0071",
	"frame": {"x":1317,"y":640,"w":186,"h":211},
	"rotated": false,
	"trimmed": false,
	"spriteSourceSize": {"x":0,"y":0,"w":186,"h":211},
	"sourceSize": {"w":186,"h":211},
	"pivot": {"x":0.5,"y":0.5}
},
{
	"filename": "Card_25_0072",
	"frame": {"x":1505,"y":640,"w":186,"h":211},
	"rotated": false,
	"trimmed": false,
	"spriteSourceSize": {"x":0,"y":0,"w":186,"h":211},
	"sourceSize": {"w":186,"h":211},
	"pivot": {"x":0.5,"y":0.5}
},
{
	"filename": "Card_25_0073",
	"frame": {"x":1693,"y":640,"w":186,"h":211},
	"rotated": false,
	"trimmed": false,
	"spriteSourceSize": {"x":0,"y":0,"w":186,"h":211},
	"sourceSize": {"w":186,"h":211},
	"pivot": {"x":0.5,"y":0.5}
},
{
	"filename": "Card_25_0074",
	"frame": {"x":1881,"y":640,"w":177,"h":211},
	"rotated": false,
	"trimmed": true,
	"spriteSourceSize": {"x":2,"y":0,"w":177,"h":211},
	"sourceSize": {"w":186,"h":211},
	"pivot": {"x":0.5,"y":0.5}
},
{
	"filename": "Card_25_0075",
	"frame": {"x":2060,"y":640,"w":177,"h":211},
	"rotated": false,
	"trimmed": true,
	"spriteSourceSize": {"x":2,"y":0,"w":177,"h":211},
	"sourceSize": {"w":186,"h":211},
	"pivot": {"x":0.5,"y":0.5}
},
{
	"filename": "Card_25_0076",
	"frame": {"x":2239,"y":640,"w":177,"h":211},
	"rotated": false,
	"trimmed": true,
	"spriteSourceSize": {"x":2,"y":0,"w":177,"h":211},
	"sourceSize": {"w":186,"h":211},
	"pivot": {"x":0.5,"y":0.5}
},
{
	"filename": "Card_25_0077",
	"frame": {"x":2418,"y":640,"w":177,"h":211},
	"rotated": false,
	"trimmed": true,
	"spriteSourceSize": {"x":2,"y":0,"w":177,"h":211},
	"sourceSize": {"w":186,"h":211},
	"pivot": {"x":0.5,"y":0.5}
},
{
	"filename": "Card_25_0078",
	"frame": {"x":2597,"y":640,"w":177,"h":211},
	"rotated": false,
	"trimmed": true,
	"spriteSourceSize": {"x":2,"y":0,"w":177,"h":211},
	"sourceSize": {"w":186,"h":211},
	"pivot": {"x":0.5,"y":0.5}
},
{
	"filename": "Card_25_0079",
	"frame": {"x":2776,"y":640,"w":177,"h":211},
	"rotated": false,
	"trimmed": true,
	"spriteSourceSize": {"x":2,"y":0,"w":177,"h":211},
	"sourceSize": {"w":186,"h":211},
	"pivot": {"x":0.5,"y":0.5}
},
{
	"filename": "Card_25_0080",
	"frame": {"x":2955,"y":640,"w":177,"h":211},
	"rotated": false,
	"trimmed": true,
	"spriteSourceSize": {"x":2,"y":0,"w":177,"h":211},
	"sourceSize": {"w":186,"h":211},
	"pivot": {"x":0.5,"y":0.5}
},
{
	"filename": "Card_25_0081",
	"frame": {"x":3134,"y":640,"w":177,"h":211},
	"rotated": false,
	"trimmed": true,
	"spriteSourceSize": {"x":2,"y":0,"w":177,"h":211},
	"sourceSize": {"w":186,"h":211},
	"pivot": {"x":0.5,"y":0.5}
},
{
	"filename": "Card_25_0082",
	"frame": {"x":3313,"y":640,"w":177,"h":210},
	"rotated": false,
	"trimmed": true,
	"spriteSourceSize": {"x":2,"y":0,"w":177,"h":210},
	"sourceSize": {"w":186,"h":211},
	"pivot": {"x":0.5,"y":0.5}
},
{
	"filename": "Card_25_0083",
	"frame": {"x":3492,"y":640,"w":177,"h":209},
	"rotated": false,
	"trimmed": true,
	"spriteSourceSize": {"x":2,"y":0,"w":177,"h":209},
	"sourceSize": {"w":186,"h":211},
	"pivot": {"x":0.5,"y":0.5}
}],
"meta": {
	"app": "http://www.codeandweb.com/texturepacker",
	"version": "1.0",
	"image": "card_25.png",
	"format": "INDEXED",
	"size": {"w":3948,"h":852},
	"scale": "1",
	"smartupdate": "$TexturePacker:SmartUpdate:fafa982472b4baccf6d0d3a3f5439d9d:829acc3a5d3950ba260ef168476672d7:45b974b38f3ac3ef6752210bc361fdb2$"
}
}
